{
  "project_info": {
    "project_number": "667463728840",
    "firebase_url": "https://ultraagentcouk.firebaseio.com",
    "project_id": "ultraagentcouk",
    "storage_bucket": "ultraagentcouk.appspot.com"
  },
  "client": [
    {
      "client_info": {
        "mobilesdk_app_id": "1:667463728840:android:cc11e277a3881a1b",
        "android_client_info": {
          "package_name": "com.mobiona.ultraagentworker"
        }
      },
      "oauth_client": [
        {
          "client_id": "667463728840-s8qg1niqgqb31rm3i7ga65muda4e01hc.apps.googleusercontent.com",
          "client_type": 1,
          "android_info": {
            "package_name": "com.mobiona.ultraagentworker",
            "certificate_hash": "abd194e6693dfe5caa294af10bb6ab39ef3b8184"
          }
        },
        {
          "client_id": "667463728840-lfug692ngu6e47cj6tdq0boiu5rv9lr3.apps.googleusercontent.com",
          "client_type": 3
        }
      ],
      "api_key": [
        {
          "current_key": "AIzaSyCKA1ysuaVXHOeP5dSVaMTpEMZHaK6buFA"
        }
      ],
      "services": {
        "appinvite_service": {
          "other_platform_oauth_client": [
            {
              "client_id": "667463728840-lfug692ngu6e47cj6tdq0boiu5rv9lr3.apps.googleusercontent.com",
              "client_type": 3
            },
            {
              "client_id": "667463728840-t2av1sq8imum0t0e5am8m7ca3qo7r83b.apps.googleusercontent.com",
              "client_type": 2,
              "ios_info": {
                "bundle_id": "com.mobiona.ultraagentworker",
                "app_store_id": "1441874438"
              }
            }
          ]
        }
      }
    },
    {
      "client_info": {
        "mobilesdk_app_id": "1:667463728840:android:d7e6018eaad4ef33",
        "android_client_info": {
          "package_name": "uk.co.ultraagent"
        }
      },
      "oauth_client": [
        {
          "client_id": "667463728840-sfucrm3gjpr94jnmcgopatuncoecm54r.apps.googleusercontent.com",
          "client_type": 1,
          "android_info": {
            "package_name": "uk.co.ultraagent",
            "certificate_hash": "5c8d54c99b843e47d9aea5f8addb9b9d8005f79e"
          }
        },
        {
          "client_id": "667463728840-qomp2dv1n3rir5k9k3vagnkqubil8832.apps.googleusercontent.com",
          "client_type": 1,
          "android_info": {
            "package_name": "uk.co.ultraagent",
            "certificate_hash": "abd194e6693dfe5caa294af10bb6ab39ef3b8184"
          }
        },
        {
          "client_id": "667463728840-lfug692ngu6e47cj6tdq0boiu5rv9lr3.apps.googleusercontent.com",
          "client_type": 3
        }
      ],
      "api_key": [
        {
          "current_key": "AIzaSyCKA1ysuaVXHOeP5dSVaMTpEMZHaK6buFA"
        }
      ],
      "services": {
        "appinvite_service": {
          "other_platform_oauth_client": [
            {
              "client_id": "667463728840-lfug692ngu6e47cj6tdq0boiu5rv9lr3.apps.googleusercontent.com",
              "client_type": 3
            },
            {
              "client_id": "667463728840-t2av1sq8imum0t0e5am8m7ca3qo7r83b.apps.googleusercontent.com",
              "client_type": 2,
              "ios_info": {
                "bundle_id": "com.mobiona.ultraagentworker",
                "app_store_id": "1441874438"
              }
            }
          ]
        }
      }
    }
  ],
  "configuration_version": "1"
}